com\ntoannhan\onestar\oneaccount\app\model\ClientInfo.class
com\ntoannhan\onestar\oneaccount\app\api\ExportApi$1.class
com\ntoannhan\onestar\oneaccount\app\api\UserGroupApiController.class
com\ntoannhan\onestar\oneaccount\app\model\NotificationQueryResult.class
com\ntoannhan\onestar\oneaccount\app\api\AvatarApi.class
com\ntoannhan\onestar\oneaccount\app\api\NotificationApiDelegate.class
com\ntoannhan\onestar\oneaccount\app\api\FileApi$1.class
com\ntoannhan\onestar\oneaccount\app\model\UserData.class
com\ntoannhan\onestar\oneaccount\app\api\ActivityApi$1.class
com\ntoannhan\onestar\oneaccount\app\api\NotificationApi.class
com\ntoannhan\onestar\oneaccount\app\api\UserTitleApiDelegate.class
com\ntoannhan\onestar\oneaccount\app\model\Project.class
com\ntoannhan\onestar\oneaccount\app\api\UserTitleApiController$1.class
com\ntoannhan\onestar\oneaccount\app\model\FileInfo.class
com\ntoannhan\onestar\oneaccount\app\api\KeyCloakUserApiController.class
com\ntoannhan\onestar\oneaccount\app\api\UserTitleApi.class
com\ntoannhan\onestar\oneaccount\app\api\FileApi.class
com\ntoannhan\onestar\oneaccount\app\api\ProjectApiDelegate.class
com\ntoannhan\onestar\oneaccount\app\api\UserApiController$1.class
com\ntoannhan\onestar\oneaccount\app\model\UserTitleData.class
com\ntoannhan\onestar\oneaccount\app\model\InlineObject.class
com\ntoannhan\onestar\oneaccount\app\api\NotificationApi$1.class
com\ntoannhan\onestar\oneaccount\app\api\FileApiController$1.class
com\ntoannhan\onestar\oneaccount\app\model\BooleanResponse.class
com\ntoannhan\onestar\oneaccount\app\model\UserExtraData.class
com\ntoannhan\onestar\oneaccount\app\model\KeyCloakUser.class
com\ntoannhan\onestar\oneaccount\app\model\UserPassword.class
com\ntoannhan\onestar\oneaccount\app\api\ProjectApiController$1.class
com\ntoannhan\onestar\oneaccount\app\api\ApiUtil.class
com\ntoannhan\onestar\oneaccount\app\api\UserGroupApi$1.class
com\ntoannhan\onestar\oneaccount\app\model\ActionType.class
com\ntoannhan\onestar\oneaccount\app\api\AvatarApiDelegate.class
com\ntoannhan\onestar\oneaccount\app\api\ExportApiController.class
com\ntoannhan\onestar\oneaccount\app\model\Notification.class
com\ntoannhan\onestar\oneaccount\app\model\ActivitySource.class
com\ntoannhan\onestar\oneaccount\app\api\ActivityApiDelegate.class
com\ntoannhan\onestar\oneaccount\app\api\ProjectApi.class
com\ntoannhan\onestar\oneaccount\app\model\SearchUserData.class
com\ntoannhan\onestar\oneaccount\app\api\KeyCloakUserApiDelegate.class
com\ntoannhan\onestar\oneaccount\app\api\UserApi$1.class
com\ntoannhan\onestar\oneaccount\app\api\ExportApiDelegate.class
com\ntoannhan\onestar\oneaccount\app\api\NotificationApiController.class
com\ntoannhan\onestar\oneaccount\app\model\SearchUserTitleData.class
com\ntoannhan\onestar\oneaccount\app\api\KeyCloakUserApi$1.class
com\ntoannhan\onestar\oneaccount\app\api\ProjectApi$1.class
com\ntoannhan\onestar\oneaccount\app\api\UserGroupApiController$1.class
com\ntoannhan\onestar\oneaccount\app\model\ActivityLog.class
com\ntoannhan\onestar\oneaccount\app\api\UserApiDelegate.class
com\ntoannhan\onestar\oneaccount\app\api\ActivityApiController$1.class
com\ntoannhan\onestar\oneaccount\app\api\KeyCloakUserApiController$1.class
com\ntoannhan\onestar\oneaccount\app\api\AvatarApi$1.class
com\ntoannhan\onestar\oneaccount\app\api\ExportApi.class
com\ntoannhan\onestar\oneaccount\app\api\UserTitleApiController.class
com\ntoannhan\onestar\oneaccount\app\api\AvatarApiController$1.class
com\ntoannhan\onestar\oneaccount\app\api\NotificationApiController$1.class
com\ntoannhan\onestar\oneaccount\app\api\UserTitleApi$1.class
com\ntoannhan\onestar\oneaccount\app\model\ActivityLogGetAllResult.class
com\ntoannhan\onestar\oneaccount\app\api\UserGroupApiDelegate.class
com\ntoannhan\onestar\oneaccount\app\api\AvatarApiController.class
com\ntoannhan\onestar\oneaccount\app\model\UserGroup.class
com\ntoannhan\onestar\oneaccount\app\api\UserApiController.class
com\ntoannhan\onestar\oneaccount\app\api\ActivityApiController.class
com\ntoannhan\onestar\oneaccount\app\api\UserGroupApi.class
com\ntoannhan\onestar\oneaccount\app\model\RestError.class
com\ntoannhan\onestar\oneaccount\app\api\FileApiDelegate.class
com\ntoannhan\onestar\oneaccount\app\api\UserApi.class
com\ntoannhan\onestar\oneaccount\app\api\FileApiController.class
com\ntoannhan\onestar\oneaccount\app\api\ProjectApiController.class
com\ntoannhan\onestar\oneaccount\app\api\ExportApiController$1.class
com\ntoannhan\onestar\oneaccount\app\api\KeyCloakUserApi.class
com\ntoannhan\onestar\oneaccount\app\api\ActivityApi.class
